<?xml version="1.0" encoding="utf-8"?>
<!-- Generator: Adobe Illustrator 16.0.0, SVG Export Plug-In . SVG Version: 6.00 Build 0)  -->
<!DOCTYPE svg PUBLIC "-//W3C//DTD SVG 1.1//EN" "http://www.w3.org/Graphics/SVG/1.1/DTD/svg11.dtd">
<svg version="1.1" id="Layer_1" xmlns="http://www.w3.org/2000/svg" xmlns:xlink="http://www.w3.org/1999/xlink" x="0px" y="0px"
	 width="365.59375px" height="387px" viewBox="0.00024 0 365.59375 387" enable-background="new 0.00024 0 365.59375 387"
	 xml:space="preserve">
	 <style>
	 	line {
			stroke-dasharray: 1000;
			stroke-dashoffset: 1000;
	 		animation: dash 5s linear infinite;
	 	}

	 	line:nth-child(2) {
	 	animation-delay: 0.1s;
	 	}

	 	@keyframes dash {
		  to {
		    stroke-dashoffset: 0;
		  }
		}
	 </style>
<polygon id="shape" display="none" fill="none" points="372.49341,387.04785 372.50513,335.98438 -0.40894,-1.97217 
	-0.50659,386.9502 "/>
<g>
	<line fill="none" stroke="#FFFFFF" stroke-width="27" stroke-miterlimit="10" x1="-35.70288" y1="46" x2="372.50513" y2="412"/>
	
		<line fill="none" stroke="#FFFFFF" stroke-width="24" stroke-miterlimit="10" x1="-59.52222" y1="69.81934" x2="348.68579" y2="435.81934"/>
	
		<line fill="none" stroke="#FFFFFF" stroke-width="21" stroke-miterlimit="10" x1="-83.34204" y1="93.63916" x2="324.86646" y2="459.63867"/>
	
		<line fill="none" stroke="#FFFFFF" stroke-width="18" stroke-miterlimit="10" x1="-107.16138" y1="117.4585" x2="301.04712" y2="483.45801"/>
	
		<line fill="none" stroke="#FFFFFF" stroke-width="15" stroke-miterlimit="10" x1="-130.98071" y1="141.27783" x2="277.22681" y2="507.27832"/>
	
		<line fill="none" stroke="#FFFFFF" stroke-width="12" stroke-miterlimit="10" x1="-154.80005" y1="165.09717" x2="253.40747" y2="531.09766"/>
	
		<line fill="none" stroke="#FFFFFF" stroke-width="9" stroke-miterlimit="10" x1="-178.61987" y1="188.91699" x2="229.58813" y2="554.91699"/>
	
		<line fill="none" stroke="#FFFFFF" stroke-width="6" stroke-miterlimit="10" x1="-202.43921" y1="212.73633" x2="205.7688" y2="578.73633"/>
</g>
</svg>
