<?xml version="1.0" encoding="utf-8"?>
<!-- Generator: Adobe Illustrator 16.0.0, SVG Export Plug-In . SVG Version: 6.00 Build 0)  -->
<!DOCTYPE svg PUBLIC "-//W3C//DTD SVG 1.1//EN" "http://www.w3.org/Graphics/SVG/1.1/DTD/svg11.dtd">
<svg version="1.1" id="Layer_1" xmlns="http://www.w3.org/2000/svg" xmlns:xlink="http://www.w3.org/1999/xlink" x="0px" y="0px"
	 width="365.59375px" height="387px" viewBox="0.00024 0 365.59375 387" enable-background="new 0.00024 0 365.59375 387"
	 xml:space="preserve">
<g>
	<g>
		<defs>
			<polygon id="SVGID_1_" points="365.59399,0 317.59399,0 0.00024,391 365.59399,391 			"/>
		</defs>
		<clipPath id="SVGID_2_">
			<use xlink:href="#SVGID_1_"  overflow="visible"/>
		</clipPath>
		<g clip-path="url(#SVGID_2_)">
			
				<line fill="none" stroke="#FFFFFF" stroke-width="27" stroke-miterlimit="10" x1="362.79907" y1="-9.99707" x2="27.28345" y2="408.92188"/>
			
				<line fill="none" stroke="#FFFFFF" stroke-width="23.5" stroke-miterlimit="10" x1="398.04126" y1="16.22363" x2="62.52466" y2="435.14258"/>
			
				<line fill="none" stroke="#FFFFFF" stroke-width="20" stroke-miterlimit="10" x1="433.28345" y1="42.44482" x2="97.76685" y2="461.36328"/>
			
				<line fill="none" stroke="#FFFFFF" stroke-width="16.5" stroke-miterlimit="10" x1="468.52563" y1="68.66602" x2="133.00806" y2="487.58496"/>
			
				<line fill="none" stroke="#FFFFFF" stroke-width="13" stroke-miterlimit="10" x1="503.76782" y1="94.88672" x2="168.25024" y2="513.80566"/>
			
				<line fill="none" stroke="#FFFFFF" stroke-width="9.5" stroke-miterlimit="10" x1="539.00806" y1="121.10791" x2="203.49146" y2="540.02637"/>
			
				<line fill="none" stroke="#FFFFFF" stroke-width="6" stroke-miterlimit="10" x1="574.25024" y1="147.3291" x2="238.73364" y2="566.24805"/>
		</g>
	</g>
</g>
</svg>
