<?xml version="1.0" encoding="utf-8"?>
<!-- Generator: Adobe Illustrator 16.0.0, SVG Export Plug-In . SVG Version: 6.00 Build 0)  -->
<!DOCTYPE svg PUBLIC "-//W3C//DTD SVG 1.1//EN" "http://www.w3.org/Graphics/SVG/1.1/DTD/svg11.dtd">
<svg version="1.1" id="Layer_1" xmlns="http://www.w3.org/2000/svg" xmlns:xlink="http://www.w3.org/1999/xlink" x="0px" y="0px"
	 width="312.64014px" height="1268px" viewBox="0 0 312.64014 1268" enable-background="new 0 0 312.64014 1268"
	 xml:space="preserve">
<g>
	<defs>
		<polygon id="SVGID_1_" points="311,0 0,679 311,1268 		"/>
	</defs>
	<clipPath id="SVGID_2_">
		<use xlink:href="#SVGID_1_"  overflow="visible"/>
	</clipPath>
	<g clip-path="url(#SVGID_2_)">
		<line fill="none" stroke="#9E6428" stroke-miterlimit="10" x1="1" y1="679" x2="312" y2="1268"/>
		
			<line fill="none" stroke="#9E6428" stroke-width="1.17647" stroke-miterlimit="10" x1="19.29395" y1="639.05859" x2="330.29395" y2="1228.05859"/>
		
			<line fill="none" stroke="#9E6428" stroke-width="1.35294" stroke-miterlimit="10" x1="37.58838" y1="599.11768" x2="348.58789" y2="1188.11719"/>
		
			<line fill="none" stroke="#9E6428" stroke-width="1.52941" stroke-miterlimit="10" x1="55.88232" y1="559.17627" x2="366.88281" y2="1148.17676"/>
		
			<line fill="none" stroke="#9E6428" stroke-width="1.70588" stroke-miterlimit="10" x1="74.17627" y1="519.23535" x2="385.17676" y2="1108.23535"/>
		
			<line fill="none" stroke="#9E6428" stroke-width="1.88235" stroke-miterlimit="10" x1="92.4707" y1="479.29395" x2="403.4707" y2="1068.29395"/>
		
			<line fill="none" stroke="#9E6428" stroke-width="2.05882" stroke-miterlimit="10" x1="110.76465" y1="439.35303" x2="421.76465" y2="1028.35254"/>
		
			<line fill="none" stroke="#9E6428" stroke-width="2.23529" stroke-miterlimit="10" x1="129.05859" y1="399.41162" x2="440.05859" y2="988.41211"/>
		
			<line fill="none" stroke="#9E6428" stroke-width="2.41176" stroke-miterlimit="10" x1="147.35303" y1="359.4707" x2="458.35254" y2="948.4707"/>
		
			<line fill="none" stroke="#9E6428" stroke-width="2.58824" stroke-miterlimit="10" x1="165.64697" y1="319.5293" x2="476.64746" y2="908.5293"/>
		
			<line fill="none" stroke="#9E6428" stroke-width="2.76471" stroke-miterlimit="10" x1="183.94141" y1="279.58838" x2="494.94141" y2="868.58789"/>
		
			<line fill="none" stroke="#9E6428" stroke-width="2.94118" stroke-miterlimit="10" x1="202.23535" y1="239.64697" x2="513.23535" y2="828.64746"/>
		
			<line fill="none" stroke="#9E6428" stroke-width="3.11765" stroke-miterlimit="10" x1="220.5293" y1="199.70605" x2="531.5293" y2="788.70605"/>
		
			<line fill="none" stroke="#9E6428" stroke-width="3.29412" stroke-miterlimit="10" x1="238.82373" y1="159.76465" x2="549.82324" y2="748.76465"/>
		
			<line fill="none" stroke="#9E6428" stroke-width="3.47059" stroke-miterlimit="10" x1="257.11768" y1="119.82373" x2="568.11719" y2="708.82324"/>
		
			<line fill="none" stroke="#9E6428" stroke-width="3.64706" stroke-miterlimit="10" x1="275.41162" y1="79.88232" x2="586.41211" y2="668.88281"/>
		
			<line fill="none" stroke="#9E6428" stroke-width="3.82353" stroke-miterlimit="10" x1="293.70605" y1="39.94141" x2="604.70605" y2="628.94141"/>
		<line fill="none" stroke="#9E6428" stroke-width="4" stroke-miterlimit="10" x1="312" y1="0" x2="623" y2="589"/>
	</g>
</g>
</svg>
